…
## Author

Saiem Gilani

## Examples

``` r
# \donttest{
  try(espn_wbb_player_box(game_id = 401276115))
#> ── ESPN WBB Player Box Information from ESPN.com ─────────────── wehoop 2.1.0 ──
#> ℹ Data updated: 2026-04-08 11:13:40 UTC
#> # A tibble: 25 × 54
#>      game_id season season_type game_date  game_date_time      athlete_id
#>        <int>  <int>       <int> <date>     <dttm>                   <int>
#>  1 401276115   2021           2 2021-02-21 2021-02-21 14:00:00    4433426
#>  2 401276115   2021           2 2021-02-21 2021-02-21 14:00:00    4433412
#>  3 401276115   2021           2 2021-02-21 2021-02-21 14:00:00    4398604
#>  4 401276115   2021           2 2021-02-21 2021-02-21 14:00:00    4281919
#>  5 401276115   2021           2 2021-02-21 2021-02-21 14:00:00    4281190
#>  6 401276115   2021           2 2021-02-21 2021-02-21 14:00:00    4703211
#>  7 401276115   2021           2 2021-02-21 2021-02-21 14:00:00    4398591
#>  8 401276115   2021           2 2021-02-21 2021-02-21 14:00:00    4398589
#>  9 401276115   2021           2 2021-02-21 2021-02-21 14:00:00    4433094
#> 10 401276115   2021           2 2021-02-21 2021-02-21 14:00:00    4398835
#> # ℹ 15 more rows
#> # ℹ 48 more variables: athlete_display_name <chr>, team_id <int>,
#> #   team_name <chr>, team_location <chr>, team_short_display_name <chr>,
#> #   minutes <dbl>, field_goals_made <int>, field_goals_attempted <int>,
#> #   three_point_field_goals_made <int>,
#> #   three_point_field_goals_attempted <int>, free_throws_made <int>,
#> #   free_throws_attempted <int>, offensive_rebounds <int>, …
…
