Get ESPN's WNBA game data (play-by-play, team and player box) — espn_wnba_game_all • wehoop
…
    Arguments

      game_id
      Game ID

    Author

    Saiem Gilani

    Examples

espn_wnba_game_all(game_id = 401244185)

#> $Plays
#> # A tibble: 388 x 20
#>    shooting_play sequence_number home_score scoring_play away_score id     text 
#>    <lgl>         <chr>                <int> <lgl>             <int> <chr>  <chr>
#>  1 FALSE         4                        0 FALSE                 0 40124… Caro…
#>  2 FALSE         7                        0 FALSE                 0 40124… Nata…
#>  3 FALSE         9                        0 FALSE                 0 40124… Nata…
#>  4 TRUE          10                       0 FALSE                 0 40124… Dani…
#>  5 FALSE         11                       0 FALSE                 0 40124… Caro…
#>  6 TRUE          12                       0 TRUE                  2 40124… Caro…
#>  7 TRUE          13                       0 FALSE                 2 40124… Sue …
#>  8 FALSE         14                       0 FALSE                 2 40124… Las …
#>  9 TRUE          15                       0 TRUE                  4 40124… A'ja…
#> 10 FALSE         17                       0 FALSE                 4 40124… Ange…
#> # … with 378 more rows, and 13 more variables: score_value <int>,
#> #   period_display_value <chr>, period_number <int>, coordinate_x <int>,
#> #   coordinate_y <int>, clock_display_value <chr>, team_id <chr>,
#> #   type_id <chr>, type_text <chr>, play_id <chr>, athlete_id_1 <chr>,
#> #   athlete_id_2 <chr>, athlete_id_3 <chr>
#> 
#> $Team
#> # A tibble: 21 x 3
#>    home  label              away 
#>    <chr> <chr>              <chr>
#>  1 Storm Team               Aces 
#>  2 38-80 FG                 22-64
#>  3 47.5  Field Goal %       34.4 
#>  4 7-26  3PT                2-5  
#>  5 26.9  Three Point %      40.0 
#>  6 9-12  FT                 13-18
#>  7 75.0  Free Throw %       72.2 
#>  8 42    Rebounds           33   
#>  9 11    Offensive Rebounds 7    
#> 10 31    Defensive Rebounds 26   
#> # … with 11 more rows
…
