…
## Author

Saiem Gilani

## Examples

``` r
# \donttest{
  try(espn_wbb_pbp(game_id = 401498717))
#> ── ESPN WBB Play-by-Play Information from ESPN.com ───────────── wehoop 3.0.0 ──
#> ℹ Data updated: 2026-04-14 04:27:14 UTC
#> # A tibble: 369 × 49
#>    id       sequence_number text  away_score home_score scoring_play score_value
#>    <chr>    <chr>           <chr>      <int>      <int> <lgl>              <int>
#>  1 4014987… 101905701       Agne…          0          0 FALSE                  3
#>  2 4014987… 101906001       Isab…          0          0 FALSE                  0
#>  3 4014987… 101907101       Alis…          0          0 FALSE                  2
#>  4 4014987… 101907301       Came…          0          0 FALSE                  0
#>  5 4014987… 101908001       Hale…          0          0 FALSE                  2
#>  6 4014987… 101908201       Kenn…          0          0 FALSE                  0
#>  7 4014987… 101909401       Jenn…          0          0 FALSE                  2
#>  8 4014987… 101909402       Hale…          0          0 FALSE                  0
#>  9 4014987… 101909801       Hale…          0          0 FALSE                  0
#> 10 4014987… 101914101       Agne…          3          0 TRUE                   3
#> # ℹ 359 more rows
#> # ℹ 42 more variables: wallclock <chr>, shooting_play <lgl>,
#> #   points_attempted <int>, short_description <chr>, type_id <int>,
#> #   type_text <chr>, period_number <int>, period_display_value <chr>,
#> #   clock_display_value <chr>, team_id <int>, play_id <chr>,
#> #   athlete_id_1 <int>, athlete_id_2 <int>, home_team_id <int>,
#> #   home_team_mascot <chr>, home_team_name <chr>, home_team_abbrev <chr>, …
…
