…
## Author

Saiem Gilani

## Examples

``` r
# \donttest{
  try(espn_wnba_game_rosters(game_id = 401244185))
#> ── ESPN WNBA Game Roster Information from ESPN.com ───────────── wehoop 3.0.0 ──
#> ℹ Data updated: 2026-05-01 03:09:08 UTC
#> # A tibble: 24 × 156
#>    athlete_id athlete_uid  athlete_guid athlete_type    sdr first_name last_name
#>         <int> <chr>        <chr>        <chr>         <int> <chr>      <chr>    
#>  1        924 s:40~l:59~a… 09609790-79… basketball   2.24e6 Alysha     Clark    
#>  2    2998928 s:40~l:59~a… 4d83d500-2f… basketball   3.00e6 Breanna    Stewart  
#>  3         91 s:40~l:59~a… e28a886c-1b… basketball   2.09e6 Sue        Bird     
#>  4    2987869 s:40~l:59~a… 6268520f-7d… basketball   2.99e6 Jewell     Loyd     
#>  5        805 s:40~l:59~a… 54d95e90-71… basketball   2.17e6 Crystal    Langhorne
#>  6    2998929 s:40~l:59~a… 2d61e8fa-19… basketball   3.00e6 Morgan     Tuck     
#>  7    4420318 s:40~l:59~a… 1a2b36a5-ad… basketball   4.42e6 Ezi        Magbegor 
#>  8    3056672 s:40~l:59~a… fc7acd4e-21… basketball   3.06e6 Mercedes   Russell  
#>  9        882 s:40~l:59~a… 0230e8a4-7b… basketball   2.28e6 Epiphanny  Prince   
#> 10    3142250 s:40~l:59~a… 6e517eae-e6… basketball   3.14e6 Jordin     Canada   
#> # ℹ 14 more rows
#> # ℹ 149 more variables: full_name <chr>, athlete_display_name <chr>,
#> #   short_name <chr>, weight <dbl>, display_weight <chr>, height <dbl>,
#> #   display_height <chr>, age <int>, date_of_birth <chr>, slug <chr>,
#> #   headshot_href <chr>, headshot_alt <chr>, jersey_x <chr>, position_id <int>,
#> #   position_name <chr>, position_display_name <chr>,
#> #   position_abbreviation <chr>, position_leaf <lgl>, linked <lgl>, …
…
