…
## Author

Saiem Gilani

## Examples

``` r
# \donttest{
  try(espn_wbb_game_all(game_id = 401276115))
#> $Plays
#> ── ESPN WBB Play-by-Play Information from ESPN.com ───────────── wehoop 3.0.0 ──
#> ℹ Data updated: 2026-04-14 04:27:08 UTC
#> # A tibble: 386 × 53
#>    id       sequence_number text  away_score home_score scoring_play score_value
#>    <chr>    <chr>           <chr>      <int>      <int> <lgl>              <int>
#>  1 4012761… 101899901       Jump…          0          0 FALSE                  0
#>  2 4012761… 101904901       Morg…          0          2 TRUE                   2
#>  3 4012761… 101907701       Kian…          3          2 TRUE                   3
#>  4 4012761… 101914901       Vale…          3          2 FALSE                  2
#>  5 4012761… 101914902       Morg…          3          2 FALSE                  0
#>  6 4012761… 101915701       Kour…          3          5 TRUE                   3
#>  7 4012761… 101919001       Dana…          3          5 FALSE                  3
#>  8 4012761… 101919002       Kian…          3          5 FALSE                  0
#>  9 4012761… 101919501       Myka…          5          5 TRUE                   2
#> 10 4012761… 101924601       Morg…          5          5 FALSE                  2
#> # ℹ 376 more rows
#> # ℹ 46 more variables: wallclock <chr>, shooting_play <lgl>,
#> #   points_attempted <int>, short_description <chr>, type_id <int>,
#> #   type_text <chr>, period_number <int>, period_display_value <chr>,
#> #   clock_display_value <chr>, team_id <int>, coordinate_x_raw <dbl>,
#> #   coordinate_y_raw <dbl>, coordinate_x <dbl>, coordinate_y <dbl>,
#> #   play_id <chr>, athlete_id_1 <int>, athlete_id_2 <int>, …
…
#>       <int>  <int>       <int> <date>     <dttm>                <int> <chr>     
#> 1 401276115   2021           2 2021-02-21 2021-02-21 14:00:00      97 s:40~l:54…
#> 2 401276115   2021           2 2021-02-21 2021-02-21 14:00:00      52 s:40~l:54…
#> # ℹ 49 more variables: team_slug <chr>, team_location <chr>, team_name <chr>,
#> #   team_abbreviation <chr>, team_display_name <chr>,
#> #   team_short_display_name <chr>, team_color <chr>,
#> #   team_alternate_color <chr>, team_logo <chr>, team_home_away <chr>,
#> #   team_score <int>, team_winner <lgl>, assists <int>, blocks <int>,
#> #   defensive_rebounds <int>, fast_break_points <chr>, field_goal_pct <dbl>,
#> #   field_goals_made <int>, field_goals_attempted <int>, fouls <int>, …
#> 
#> $Player
#> ── ESPN WBB Player Box Information from ESPN.com ─────────────── wehoop 3.0.0 ──
#> ℹ Data updated: 2026-04-14 04:27:09 UTC
#> # A tibble: 25 × 54
#>      game_id season season_type game_date  game_date_time      athlete_id
#>        <int>  <int>       <int> <date>     <dttm>                   <int>
#>  1 401276115   2021           2 2021-02-21 2021-02-21 14:00:00    4433426
#>  2 401276115   2021           2 2021-02-21 2021-02-21 14:00:00    4433412
#>  3 401276115   2021           2 2021-02-21 2021-02-21 14:00:00    4398604
#>  4 401276115   2021           2 2021-02-21 2021-02-21 14:00:00    4281919
#>  5 401276115   2021           2 2021-02-21 2021-02-21 14:00:00    4281190
#>  6 401276115   2021           2 2021-02-21 2021-02-21 14:00:00    4703211
#>  7 401276115   2021           2 2021-02-21 2021-02-21 14:00:00    4398591
#>  8 401276115   2021           2 2021-02-21 2021-02-21 14:00:00    4398589
#>  9 401276115   2021           2 2021-02-21 2021-02-21 14:00:00    4433094
#> 10 401276115   2021           2 2021-02-21 2021-02-21 14:00:00    4398835
#> # ℹ 15 more rows
#> # ℹ 48 more variables: athlete_display_name <chr>, team_id <int>,
#> #   team_name <chr>, team_location <chr>, team_short_display_name <chr>,
#> #   minutes <dbl>, field_goals_made <int>, field_goals_attempted <int>,
#> #   three_point_field_goals_made <int>,
#> #   three_point_field_goals_attempted <int>, free_throws_made <int>,
#> #   free_throws_attempted <int>, offensive_rebounds <int>, …
…
