…
## Author

Saiem Gilani

## Examples

``` r
# \donttest{
  try(espn_wnba_player_box(game_id = 401244185))
#> ── ESPN WNBA Player Box Information from ESPN.com ────────────── wehoop 3.0.0 ──
#> ℹ Data updated: 2026-04-14 04:27:30 UTC
#> # A tibble: 25 × 57
#>      game_id season season_type game_date  game_date_time      athlete_id
#>        <int>  <int>       <int> <date>     <dttm>                   <int>
#>  1 401244185   2020           3 2020-10-06 2020-10-06 19:00:00        872
#>  2 401244185   2020           3 2020-10-06 2020-10-06 19:00:00        982
#>  3 401244185   2020           3 2020-10-06 2020-10-06 19:00:00    3149391
#>  4 401244185   2020           3 2020-10-06 2020-10-06 19:00:00       1014
#>  5 401244185   2020           3 2020-10-06 2020-10-06 19:00:00    2529205
#>  6 401244185   2020           3 2020-10-06 2020-10-06 19:00:00    2284331
#>  7 401244185   2020           3 2020-10-06 2020-10-06 19:00:00    2566452
#>  8 401244185   2020           3 2020-10-06 2020-10-06 19:00:00    2491197
#>  9 401244185   2020           3 2020-10-06 2020-10-06 19:00:00    3058908
#> 10 401244185   2020           3 2020-10-06 2020-10-06 19:00:00    4065870
#> # ℹ 15 more rows
#> # ℹ 51 more variables: athlete_display_name <chr>, team_id <int>,
#> #   team_name <chr>, team_location <chr>, team_short_display_name <chr>,
#> #   minutes <dbl>, field_goals_made <int>, field_goals_attempted <int>,
#> #   three_point_field_goals_made <int>,
#> #   three_point_field_goals_attempted <int>, free_throws_made <int>,
#> #   free_throws_attempted <int>, offensive_rebounds <int>, …
…
