…
## Examples

``` r
# \donttest{
  try(espn_wbb_standings(2021))
#> ── ESPN WBB Standings Information from ESPN.com ──────────────── wehoop 2.1.0 ──
#> ℹ Data updated: 2026-04-08 11:13:45 UTC
#> # A tibble: 346 × 86
#>    team_id team       avgpointsagainst avgpointsfor gamesbehind leaguewinpercent
#>      <int> <chr>                 <dbl>        <dbl>       <dbl>            <dbl>
#>  1    2856 Californi…             61.9         77.8         0              1    
#>  2      24 Stanford …             53.7         77.7        -5              0.905
#>  3      41 UConn Hus…             52.6         81.9         0              1    
#>  4     239 Baylor Be…             55.3         81.9         0              0.944
#>  5    2083 Bucknell …             55.5         70.6         0              1    
#>  6     526 Florida G…             59.6         81.6         0              1    
#>  7     120 Maryland …             69.0         90.8         0              0.944
#>  8     245 Texas A&M…             62.6         75.2         0              0.929
#>  9    2617 Stephen F…             51           80.2         0              1    
#> 10    2623 Missouri …             57.2         70.2        -0.5            1    
#> # ℹ 336 more rows
#> # ℹ 80 more variables: losses <dbl>, playoffseed <dbl>,
#> #   pointdifferential <chr>, pointsagainst <dbl>, pointsfor <dbl>,
#> #   streak <dbl>, winpercent <dbl>, wins <dbl>, gamesahead <chr>, total <chr>,
#> #   home_avgpointsagainst <dbl>, home_avgpointsfor <dbl>,
#> #   home_gamesbehind <dbl>, home_leaguewinpercent <dbl>, home_losses <dbl>,
#> #   home_playoffseed <dbl>, home_pointdifferential <chr>, …
…
