…
## Author

Saiem Gilani

## Examples

``` r
# \donttest{
   try(espn_wnba_pbp(game_id = 401455681))
#> ── ESPN WNBA Play-by-Play Information from ESPN.com ──────────── wehoop 3.0.0 ──
#> ℹ Data updated: 2026-04-14 04:27:30 UTC
#> # A tibble: 343 × 54
#>    id       sequence_number text  away_score home_score scoring_play score_value
#>    <chr>    <chr>           <chr>      <int>      <int> <lgl>              <int>
#>  1 4014556… 4               Jonq…          0          0 FALSE                  0
#>  2 4014556… 7               A'ja…          0          2 TRUE                   2
#>  3 4014556… 9               Nati…          0          2 FALSE                  0
#>  4 4014556… 10              Kiah…          0          2 FALSE                  0
#>  5 4014556… 11              Jack…          0          5 TRUE                   3
#>  6 4014556… 13              Nati…          3          5 TRUE                   3
#>  7 4014556… 15              A'ja…          3          7 TRUE                   2
#>  8 4014556… 17              Cour…          3          7 FALSE                  0
#>  9 4014556… 18              Kels…          3          7 FALSE                  0
#> 10 4014556… 19              A'ja…          3          9 TRUE                   2
#> # ℹ 333 more rows
#> # ℹ 47 more variables: wallclock <chr>, shooting_play <lgl>,
#> #   points_attempted <int>, short_description <chr>, type_id <int>,
#> #   type_text <chr>, period_number <int>, period_display_value <chr>,
#> #   clock_display_value <chr>, team_id <int>, coordinate_x_raw <dbl>,
#> #   coordinate_y_raw <dbl>, coordinate_x <dbl>, coordinate_y <dbl>,
#> #   play_id <chr>, athlete_id_1 <int>, athlete_id_2 <int>, …
…
