Load wehoop women's college basketball play-by-play — load_wbb_pbp • wehoop
…
coordinate_y

week
Apparently there are weeks

media_id
Where did you come from

    Examples

# \donttest{
load_wbb_pbp(2004:2021)
#> # A tibble: 8,650,487 × 55
#>    shooting_play sequence_number period_display_value period_number home_score
#>    <lgl>         <chr>           <chr>                        <int>      <int>
#>  1 TRUE          1               1st Half                         1          0
#>  2 FALSE         2               1st Half                         1          0
#>  3 FALSE         3               1st Half                         1          0
#>  4 TRUE          4               1st Half                         1          0
#>  5 FALSE         5               1st Half                         1          0
#>  6 TRUE          6               1st Half                         1          2
#>  7 FALSE         7               1st Half                         1          2
#>  8 TRUE          8               1st Half                         1          3
#>  9 TRUE          9               1st Half                         1          5
#> 10 FALSE         10              1st Half                         1          5
#> # … with 8,650,477 more rows, and 50 more variables: scoring_play <lgl>,
#> #   clock_display_value <chr>, team_id <chr>, type_id <chr>, type_text <chr>,
#> #   away_score <int>, id <dbl>, text <chr>, score_value <int>,
#> #   participants_0_athlete_id <chr>, season <int>, season_type <int>,
#> #   away_team_id <int>, away_team_name <chr>, away_team_mascot <chr>,
#> #   away_team_abbrev <chr>, away_team_name_alt <chr>, home_team_id <int>,
#> #   home_team_name <chr>, home_team_mascot <chr>, home_team_abbrev <chr>, …
…
