Load wehoop WNBA play-by-play — load_wnba_pbp • wehoop
…
lead_half
A lead column on the half

game_play_number
Game play number

game_id
Unique identifier for the game event

    Examples

# \donttest{
  try(load_wnba_pbp())
#> ──────────────────────────────────────────────────────────────── wehoop 1.8.0 ──
#> # A tibble: 93,166 × 56
#>             id sequence_number type_id type_text     text  away_score home_score
#>          <dbl> <chr>           <chr>   <chr>         <chr>      <int>      <int>
#>  1  4013916504 4               615     Jumpball      "Que…          0          0
#>  2  4013916507 7               45      Personal Foul "Myi…          0          0
#>  3  4013916509 9               615     Jumpball      "NaL…          0          0
#>  4 40139165012 12              92      Jump Shot     "Sha…          0          0
#>  5 40139165014 14              156     Offensive Re… "Fev…          0          0
#>  6 40139165015 15              70      Shot Clock T… "sho…          0          0
#>  7 40139165016 16              136     Turnaround B… "Ele…          0          0
#>  8 40139165017 17              155     Defensive Re… "Que…          0          0
#>  9 40139165018 18              141     Cutting Layu… "Tif…          2          0
#> 10 40139165020 20              110     Driving Layu… "Nat…          2          2
#> # ℹ 93,156 more rows
#> # ℹ 49 more variables: period_number <int>, period_display_value <chr>,
#> #   clock_display_value <chr>, scoring_play <lgl>, score_value <int>,
#> #   team_id <chr>, participants_0_athlete_id <chr>,
#> #   participants_1_athlete_id <chr>, participants_2_athlete_id <chr>,
#> #   wallclock <chr>, shooting_play <lgl>, coordinate_x <int>,
#> #   coordinate_y <int>, season <int>, season_type <int>, away_team_id <int>, …
…
